Formative Exercise 05: Data Wrangling
…
## # A tibble: 1 x 2
##   minyear maxyear
##     <dbl>   <dbl>
## 1    1974    2020

Question 4

Make a table of only the data from babies named Hermione.

hermiones <- ukb %>%
  filter(name == "Hermione") %>%
  print()

## # A tibble: 46 x 6
##     year sex   name         n  rank nation         
##    <dbl> <chr> <chr>    <dbl> <dbl> <chr>          
##  1  1996 F     Hermione    21   974 England & Wales
##  2  1997 F     Hermione    29   789 England & Wales
##  3  1998 F     Hermione    40   628 England & Wales
##  4  1999 F     Hermione    35   678 England & Wales
##  5  2000 F     Hermione    40   637 England & Wales
##  6  2001 F     Hermione    52   540 England & Wales
##  7  2002 F     Hermione    84   394 England & Wales
##  8  2003 F     Hermione   158   265 England & Wales
##  9  2004 F     Hermione   162   265 England & Wales
## 10  2005 F     Hermione   122   331 England & Wales
## #  with 36 more rows
…
## [1] 78532

Question 9

Make a table of only the data from the female babies named Frankie that were born before 1999 or after 2010.

frankie <- ukb %>%
  filter(name == "Frankie", 
         sex == "F",
         (year < 1999) | (year > 2010)) %>%
  print()

## # A tibble: 37 x 6
##     year sex   name        n  rank nation         
##    <dbl> <chr> <chr>   <dbl> <dbl> <chr>          
##  1  1996 F     Frankie    34   686 England & Wales
##  2  1997 F     Frankie    48   545 England & Wales
##  3  1998 F     Frankie    41   619 England & Wales
##  4  2011 F     Frankie   337   156 England & Wales
##  5  2012 F     Frankie   298   173 England & Wales
##  6  2013 F     Frankie   273   195 England & Wales
##  7  2014 F     Frankie   344   162 England & Wales
##  8  2015 F     Frankie   376   147 England & Wales
##  9  2016 F     Frankie   430   132 England & Wales
## 10  2017 F     Frankie   409   132 England & Wales
## #  with 27 more rows
…
