Formative Exercise 07: Data Wrangling
…
## # A tibble: 1 x 2
##   minyear maxyear
##     <dbl>   <dbl>
## 1    1974    2020

Question 4

Make a table of only the data from babies named Hermione.

hermiones <- sbn %>%
  filter(name == "Hermione") %>%
  print()

## # A tibble: 22 x 6
##     year sex   name         n  rank nation  
##    <dbl> <chr> <chr>    <dbl> <dbl> <chr>   
##  1  1976 F     Hermione     1   833 Scotland
##  2  1990 F     Hermione     1  1033 Scotland
##  3  1994 F     Hermione     1  1112 Scotland
##  4  1995 F     Hermione     1  1101 Scotland
##  5  1998 F     Hermione     1  1149 Scotland
##  6  2000 F     Hermione     1  1162 Scotland
##  7  2001 F     Hermione     1  1129 Scotland
##  8  2002 F     Hermione     1  1139 Scotland
##  9  2004 F     Hermione     1  1230 Scotland
## 10  2005 F     Hermione     1  1258 Scotland
## #  with 12 more rows
…
