…
### Columns by Year

Spread out the maternal mortality rate by year.


```r
matmort_wide <- matmort2 %>%
  spread(key = Year, value = rate) %>%
  print()
```

```
## # A tibble: 542 × 6
##    Country     ci_low ci_hi `1990` `2000` `2015`
##    <chr>        <int> <int>  <int>  <int>  <int>
##  1 Afghanistan    253   620     NA     NA    396
##  2 Afghanistan    745  1570     NA   1100     NA
##  3 Afghanistan    878  1950   1340     NA     NA
##  4 Albania         16    46     NA     NA     29
##  5 Albania         33    56     NA     43     NA
##  6 Albania         58    88     71     NA     NA
##  7 Algeria         82   244     NA     NA    140
##  8 Algeria        118   241     NA    170     NA
##  9 Algeria        141   327    216     NA     NA
## 10 Angola         221   988     NA     NA    477
## # … with 532 more rows
```
…
To get the dataset into wide format, where each question is in a separate column, use the following code:


```r
q <- experimentum_quests %>%
  pivot_wider(id_cols = session_id:user_age,
              names_from = q_name,
              values_from = dv) %>%
  type.convert(as.is = TRUE) %>%
  print()
```

```
## # A tibble: 24 × 15
##    session…¹ proje…² quest…³ user_id user_…⁴ user_…⁵ user_…⁶ current  past name 
##        <int>   <int>   <int>   <int> <chr>   <chr>     <dbl>   <int> <int> <chr>
##  1     34034       1       1   31105 female  guest      28.2       1     1 Ruby 
##  2     34104       1       1   31164 male    regist…    19.4       1     1 stev…
##  3     34326       1       1   31392 female  guest      17         0     0 Cat  
##  4     34343       1       1   31397 male    guest      22         1     1 Dukee
##  5     34765       1       1   31770 female  guest      44         1     1 <NA> 
##  6     34796       1       1   31796 female  guest      35.9       0     0 Patch
##  7     34806       1       1   31798 female  guest      35         0     1 Teddy
##  8     34822       1       1   31802 female  guest      58         1     1 Lara 
##  9     34864       1       1   31820 male    guest      20         0     0 Pawpy
## 10     35014       1       1   31921 female  student    39.2       1     1 Herb…
## # … with 14 more rows, 5 more variables: good <int>, country <chr>, text <chr>,
## #   good_borzoi <int>, time <chr>, and abbreviated variable names ¹​session_id,
## #   ²​project_id, ³​quest_id, ⁴​user_sex, ⁵​user_status, ⁶​user_age
```
…
