Chapter 3 Working with Data | Data Skills for Reproducible Research
…
## 
##  Column specification 
## cols(
##   junk = col_character(),
##   order = col_character(),
##   score = col_double(),
##   letter = col_character(),
##   good = col_character(),
##   min_max = col_character(),
##   date = col_character()
## )

mess

## # A tibble: 26 x 7
##    junk  order   score letter good  min_max date      
##    <chr> <chr>   <dbl> <chr>  <chr> <chr>   <chr>     
##  1 junk  1       -1    a      1     1 - 2   2020-01-1 
##  2 junk  missing  0.72 b      1     2 - 3   2020-01-2 
##  3 junk  3       -0.62 c      FALSE 3 - 4   2020-01-3 
##  4 junk  4        2.03 d      T     4 - 5   2020-01-4 
##  5 junk  5       NA    e      1     5 - 6   2020-01-5 
##  6 junk  6        0.99 f      0     6 - 7   2020-01-6 
##  7 junk  7        0.03 g      T     7 - 8   2020-01-7 
##  8 junk  8        0.67 h      TRUE  8 - 9   2020-01-8 
##  9 junk  9        0.57 i      1     9 - 10  2020-01-9 
## 10 junk  10       0.9  j      T     10 - 11 2020-01-10
## #  with 16 more rows
…
You will get a message about "1 parsing failure" when you run this. Warnings look scary at first, but always start by reading the message. The table tells you what row (2) and column (order) the error was found in, what kind of data was expected (integer), and what the actual value was (missing). If you specifically tell read_csv() to import a column as an integer, any characters in the column will produce a warning like this and then be recorded as NA. You can manually set what the missing values are recorded as with the na argument.

tidiest <- read_csv("data/mess.csv", 
                   skip = 2,
                   na = "missing",
                   col_types = ct)

Now order is an integer where "missing" is now NA, good is a logical value, where 0 and F are converted to FALSE and 1 and T are converted to TRUE, and date is a date type (adding leading zeros to the day). We'll learn in later chapters how to fix the other problems.

tidiest

## # A tibble: 26 x 6
##    order score letter good  min_max date      
##    <int> <chr> <chr>  <lgl> <chr>   <date>    
##  1     1 -1    a      TRUE  1 - 2   2020-01-01
##  2    NA 0.72  b      TRUE  2 - 3   2020-01-02
##  3     3 -0.62 c      FALSE 3 - 4   2020-01-03
##  4     4 2.03  d      TRUE  4 - 5   2020-01-04
##  5     5 NA    e      TRUE  5 - 6   2020-01-05
##  6     6 0.99  f      FALSE 6 - 7   2020-01-06
##  7     7 0.03  g      TRUE  7 - 8   2020-01-07
##  8     8 0.67  h      TRUE  8 - 9   2020-01-08
##  9     9 0.57  i      TRUE  9 - 10  2020-01-09
## 10    10 0.9   j      TRUE  10 - 11 2020-01-10
## #  with 16 more rows
…
